%YAML 1.1
%TAG !u! tag:unity3d.com,2011:
--- !u!21 &2100000
Material:
  serializedVersion: 6
  m_ObjectHideFlags: 0
  m_CorrespondingSourceObject: {fileID: 0}
  m_PrefabInstance: {fileID: 0}
  m_PrefabAsset: {fileID: 0}
  m_Name: CartoonWaterShader
  m_Shader: {fileID: -6465566751694194690, guid: bf4173b51ae9d8b4989ee85ca1cf344b, type: 3}
  m_ShaderKeywords: 
  m_LightmapFlags: 4
  m_EnableInstancingVariants: 0
  m_DoubleSidedGI: 0
  m_CustomRenderQueue: -1
  stringTagMap: {}
  disabledShaderPasses: []
  m_SavedProperties:
    serializedVersion: 3
    m_TexEnvs:
    - unity_Lightmaps:
        m_Texture: {fileID: 0}
        m_Scale: {x: 1, y: 1}
        m_Offset: {x: 0, y: 0}
    - unity_LightmapsInd:
        m_Texture: {fileID: 0}
        m_Scale: {x: 1, y: 1}
        m_Offset: {x: 0, y: 0}
    - unity_ShadowMasks:
        m_Texture: {fileID: 0}
        m_Scale: {x: 1, y: 1}
        m_Offset: {x: 0, y: 0}
    m_Floats:
    - Vector1_3880e28fb63a4387b473a2fee783384e: 10
    - Vector1_6702e6b5e6c849b5bd1736841d929905: 1
    - Vector1_89e18c7743b04d97a6fa11dc945c9c15: 0.05
    m_Colors:
    - Color_19e2ae7930da40ad9514ab58b3f01856: {r: 0.012174192, g: 0.80608505, b: 0, a: 0}
    - Color_439482af37c54ffd9c91a4e207b43368: {r: 0, g: 0, b: 0, a: 0}
  m_BuildTextureStacks: []
