%YAML 1.1
%TAG !u! tag:unity3d.com,2011:
--- !u!21 &2100000
Material:
  serializedVersion: 6
  m_ObjectHideFlags: 0
  m_CorrespondingSourceObject: {fileID: 0}
  m_PrefabInstance: {fileID: 0}
  m_PrefabAsset: {fileID: 0}
  m_Name: ForceFieldShader
  m_Shader: {fileID: -6465566751694194690, guid: bef098b6324733a49a564c285b309336, type: 3}
  m_ShaderKeywords: 
  m_LightmapFlags: 4
  m_EnableInstancingVariants: 0
  m_DoubleSidedGI: 0
  m_CustomRenderQueue: -1
  stringTagMap: {}
  disabledShaderPasses: []
  m_SavedProperties:
    serializedVersion: 3
    m_TexEnvs:
    - Texture2D_b597e9e4db51462b9da9a620cbd453d8:
        m_Texture: {fileID: 2800000, guid: 1b6071a478e625b478ac119252ff35ac, type: 3}
        m_Scale: {x: 1, y: 1}
        m_Offset: {x: 0, y: 0}
    - unity_Lightmaps:
        m_Texture: {fileID: 0}
        m_Scale: {x: 1, y: 1}
        m_Offset: {x: 0, y: 0}
    - unity_LightmapsInd:
        m_Texture: {fileID: 0}
        m_Scale: {x: 1, y: 1}
        m_Offset: {x: 0, y: 0}
    - unity_ShadowMasks:
        m_Texture: {fileID: 0}
        m_Scale: {x: 1, y: 1}
        m_Offset: {x: 0, y: 0}
    m_Floats:
    - Vector1_6821c905992641ce9e974db6d7155e24: 0.01
    - Vector1_7339c2556d924b8d80a708f1d64b3f00: 5
    - Vector1_7d0db25ebc7e40adacabe7d0592e1a43: 0.05
    - Vector1_aa337b9b55ad48cbb47f223af22a0416: 0.6
    m_Colors:
    - Color_7394fee8ac6c4b338a100f09fe36e0cb: {r: 0, g: 10.980392, b: 11.984314, a: 0}
  m_BuildTextureStacks: []
